\relax 
\@writefile{toc}{\contentsline {section}{\numberline {1}The Inverse}{1}\protected@file@percent }
\@writefile{toc}{\contentsline {section}{\numberline {2}Matrix Representations of Linear Maps}{1}\protected@file@percent }
\@writefile{toc}{\contentsline {section}{\numberline {3}Computing}{5}\protected@file@percent }
\@writefile{lol}{\contentsline {lstlisting}{code.py}{5}\protected@file@percent }
