\relax 
\@writefile{toc}{\contentsline {section}{\numberline {1}Introduction}{1}\protected@file@percent }
\@writefile{toc}{\contentsline {section}{\numberline {2}Procedure}{1}\protected@file@percent }
\@writefile{toc}{\contentsline {subsection}{\numberline {2.1}Diffraction Grating}{1}\protected@file@percent }
\@writefile{lof}{\contentsline {figure}{\numberline {1}{\ignorespaces Diffraction Pattern Produced by Diffraction Grating}}{2}\protected@file@percent }
\newlabel{fig:diffgrating}{{1}{2}}
\@writefile{lot}{\contentsline {table}{\numberline {1}{\ignorespaces Wavelength of light $\lambda $ calculated with varying maximas}}{2}\protected@file@percent }
\newlabel{table:diffgrating}{{1}{2}}
\@writefile{lof}{\contentsline {figure}{\numberline {2}{\ignorespaces Diffraction Pattern of a Single Slit as Observed in the Lab}}{3}\protected@file@percent }
\newlabel{fig:sslitdiff}{{2}{3}}
\@writefile{toc}{\contentsline {subsection}{\numberline {2.2}Single Slit}{3}\protected@file@percent }
\@writefile{lot}{\contentsline {table}{\numberline {2}{\ignorespaces Width of Slit $a$ measured against multiple distances $D$ and orders $m$}}{3}\protected@file@percent }
\newlabel{table:SingleSlit}{{2}{3}}
\@writefile{toc}{\contentsline {subsection}{\numberline {2.3}Circular Aperture}{4}\protected@file@percent }
\@writefile{lof}{\contentsline {figure}{\numberline {3}{\ignorespaces Diffraction Pattern of a Circular Aperture}}{4}\protected@file@percent }
\newlabel{fig:circapDiffraction}{{3}{4}}
\@writefile{lot}{\contentsline {table}{\numberline {3}{\ignorespaces Diameter $d$ of circular aperture by varying $m$ and $D$}}{4}\protected@file@percent }
\newlabel{table:circaperture}{{3}{4}}
\@writefile{toc}{\contentsline {section}{\numberline {3}Analysis}{5}\protected@file@percent }
\@writefile{toc}{\contentsline {section}{\numberline {4}Scope for Improvement}{5}\protected@file@percent }
