\relax 
\@writefile{toc}{\contentsline {section}{\numberline {1}Introduction}{1}\protected@file@percent }
\@writefile{toc}{\contentsline {section}{\numberline {2}Apparatus}{1}\protected@file@percent }
\@writefile{toc}{\contentsline {section}{\numberline {3}Procedure}{2}\protected@file@percent }
\@writefile{toc}{\contentsline {subsection}{\numberline {3.1}Part A -- VI Characteristics}{2}\protected@file@percent }
\@writefile{lof}{\contentsline {figure}{\numberline {1}{\ignorespaces Experimentally used circuit diagram\relax }}{2}\protected@file@percent }
\providecommand*\caption@xref[2]{\@setref\relax\@undefined{#1}}
\newlabel{fig:part_a:circuit}{{1}{2}}
\@writefile{toc}{\contentsline {subsection}{\numberline {3.2}Part B -- Power-Resistance Relationship}{3}\protected@file@percent }
\@writefile{toc}{\contentsline {subsection}{\numberline {3.3}Part C -- Intensity-Distance Relationship}{3}\protected@file@percent }
\@writefile{lof}{\contentsline {figure}{\numberline {2}{\ignorespaces Experimental setup for measuring intensity of light as current through a photodiode with point source as light coming from a circular aperture (pinhole)\relax }}{3}\protected@file@percent }
\newlabel{fig:part_c_ray_diagram}{{2}{3}}
\@writefile{toc}{\contentsline {section}{\numberline {4}Analysis}{3}\protected@file@percent }
\@writefile{toc}{\contentsline {subsection}{\numberline {4.1}Part A - VI Characteristics}{3}\protected@file@percent }
\@writefile{lof}{\contentsline {figure}{\numberline {3}{\ignorespaces Voltage vs Current characteristics of an incandescent lamp\relax }}{4}\protected@file@percent }
\newlabel{fig:part_a:vi}{{3}{4}}
\newlabel{fig:part_a:vi_gr1}{{4a}{4}}
\newlabel{sub@fig:part_a:vi_gr1}{{a}{4}}
\newlabel{fig:part_a:vi_le1}{{4b}{4}}
\newlabel{sub@fig:part_a:vi_le1}{{b}{4}}
\@writefile{lof}{\contentsline {figure}{\numberline {4}{\ignorespaces (a) Shows the plot of voltage vs. current for $V > 1$ Volts, and (b) shows plot of voltage vs. current for $V < 1$ Volts\relax }}{4}\protected@file@percent }
\@writefile{toc}{\contentsline {subsection}{\numberline {4.2}Part B -- Power - Resistance Relationship}{5}\protected@file@percent }
\@writefile{lof}{\contentsline {figure}{\numberline {5}{\ignorespaces Logarithmic plot of power applied to the lamp vs. resistance of the lamp\relax }}{5}\protected@file@percent }
\newlabel{fig:part_b:log_pr}{{5}{5}}
\@writefile{toc}{\contentsline {subsection}{\numberline {4.3}Part C - Intensity-Distance Relationship}{5}\protected@file@percent }
\newlabel{table:part_c:data}{{6a}{6}}
\newlabel{sub@table:part_c:data}{{a}{6}}
\newlabel{fig:part_c:log_di_raw}{{6b}{6}}
\newlabel{sub@fig:part_c:log_di_raw}{{b}{6}}
\@writefile{lof}{\contentsline {figure}{\numberline {6}{\ignorespaces (a) Show the raw data collected by varying distance and measuring the current through the diode, and (b) shows the log-log plot of current vs. distance. \emph  {Note} - The last data point, with current at 0 $\mu $A, was excluded from the log-log plot, as $\log _{10}(0)$ is undefined and would throw an error\relax }}{6}\protected@file@percent }
\@writefile{toc}{\contentsline {section}{\numberline {5}Scope for Improvement}{6}\protected@file@percent }
\newlabel{fig:discussion:vi_withcurve}{{\caption@xref {fig:discussion:vi_withcurve}{ on input line 192}}{7}}
\newlabel{sub@fig:discussion:vi_withcurve}{{}{7}}
\newlabel{fig:discussion:di_manual}{{7b}{7}}
\newlabel{sub@fig:discussion:di_manual}{{b}{7}}
\@writefile{lof}{\contentsline {figure}{\numberline {7}{\ignorespaces (a) Plot of V vs. I with the modeled function $y = 128 x^{2.41}$, and (b) Plot of current vs. distance with some values manually adjusted below the least count of the ammeter\relax }}{7}\protected@file@percent }
