\relax 
\providecommand\hyper@newdestlabel[2]{}
\abx@aux@refcontext{none/global//global/global}
\providecommand\HyperFirstAtBeginDocument{\AtBeginDocument}
\HyperFirstAtBeginDocument{\ifx\hyper@anchor\@undefined
\global\let\oldcontentsline\contentsline
\gdef\contentsline#1#2#3#4{\oldcontentsline{#1}{#2}{#3}}
\global\let\oldnewlabel\newlabel
\gdef\newlabel#1#2{\newlabelxx{#1}#2}
\gdef\newlabelxx#1#2#3#4#5#6{\oldnewlabel{#1}{{#2}{#3}}}
\AtEndDocument{\ifx\hyper@anchor\@undefined
\let\contentsline\oldcontentsline
\let\newlabel\oldnewlabel
\fi}
\fi}
\global\let\hyper@last\relax 
\gdef\HyperFirstAtBeginDocument#1{#1}
\providecommand*\HyPL@Entry[1]{}
\HyPL@Entry{0<</S/D>>}
\@writefile{toc}{\boolfalse {citerequest}\boolfalse {citetracker}\boolfalse {pagetracker}\boolfalse {backtracker}\relax }
\@writefile{lof}{\boolfalse {citerequest}\boolfalse {citetracker}\boolfalse {pagetracker}\boolfalse {backtracker}\relax }
\@writefile{lot}{\boolfalse {citerequest}\boolfalse {citetracker}\boolfalse {pagetracker}\boolfalse {backtracker}\relax }
\HyPL@Entry{1<</S/D>>}
\abx@aux@cite{may2018asdfrominside}
\abx@aux@segm{0}{0}{may2018asdfrominside}
\@writefile{toc}{\defcounter {refsection}{0}\relax }\@writefile{toc}{\contentsline {section}{\numberline {1}Introduction}{2}{section.1}\protected@file@percent }
\@writefile{toc}{\defcounter {refsection}{0}\relax }\@writefile{toc}{\contentsline {section}{\numberline {2}Background}{2}{section.2}\protected@file@percent }
\abx@aux@cite{judysingerthesis}
\abx@aux@segm{0}{0}{judysingerthesis}
\abx@aux@cite{judysingernd2}
\abx@aux@segm{0}{0}{judysingernd2}
\abx@aux@cite{judysingernd2}
\abx@aux@segm{0}{0}{judysingernd2}
\abx@aux@cite{davis2013disability}
\abx@aux@segm{0}{0}{davis2013disability}
\abx@aux@cite{Misselbrook2013}
\abx@aux@segm{0}{0}{Misselbrook2013}
\abx@aux@cite{davis2013disability}
\abx@aux@segm{0}{0}{davis2013disability}
\@writefile{toc}{\defcounter {refsection}{0}\relax }\@writefile{toc}{\contentsline {subsection}{\numberline {2.1}Neurodiversity}{3}{subsection.2.1}\protected@file@percent }
\@writefile{toc}{\defcounter {refsection}{0}\relax }\@writefile{toc}{\contentsline {subsubsection}{\numberline {2.1.1}Models of disability}{3}{subsubsection.2.1.1}\protected@file@percent }
\@writefile{toc}{\defcounter {refsection}{0}\relax }\@writefile{toc}{\contentsline {subsection}{\numberline {2.2}Autism}{4}{subsection.2.2}\protected@file@percent }
\@writefile{toc}{\defcounter {refsection}{0}\relax }\@writefile{toc}{\contentsline {subsubsection}{\numberline {2.2.1}Looking at Autism Through Neurodiversity}{4}{subsubsection.2.2.1}\protected@file@percent }
\abx@aux@cite{may2018asdfrominside}
\abx@aux@segm{0}{0}{may2018asdfrominside}
\@writefile{toc}{\defcounter {refsection}{0}\relax }\@writefile{toc}{\contentsline {section}{\numberline {3}Portrayals of Autism in Media}{5}{section.3}\protected@file@percent }
\abx@aux@defaultrefcontext{0}{may2018asdfrominside}{none/global//global/global}
\abx@aux@defaultrefcontext{0}{judysingerthesis}{none/global//global/global}
\abx@aux@defaultrefcontext{0}{judysingernd2}{none/global//global/global}
\abx@aux@defaultrefcontext{0}{davis2013disability}{none/global//global/global}
\abx@aux@defaultrefcontext{0}{Misselbrook2013}{none/global//global/global}
