\relax 
\@writefile{toc}{\contentsline {section}{\numberline {1}Affine Spaces}{1}\protected@file@percent }
\@writefile{toc}{\contentsline {section}{\numberline {2}Vector Spaces}{2}\protected@file@percent }
