\relax 
\providecommand \oddpage@label [2]{}
\@writefile{toc}{\contentsline {section}{\numberline {1}Dimensional Analysis}{1}\protected@file@percent }
\@writefile{toc}{\contentsline {section}{\numberline {2}Programming}{3}\protected@file@percent }
\newlabel{fig:1}{{{{(b)}}}{4}}
\@writefile{lof}{\contentsline {figure}{\numberline {1}{\ignorespaces Plot of $x(t)$ with $\gamma = 1$ and $k/m = 1$}}{4}\protected@file@percent }
\@writefile{lof}{\contentsline {figure}{\numberline {2}{\ignorespaces Plots of $x(t)$ where the value for $\gamma $ varies between $\frac  {1}2 k$ to $100 k$ for a damped harmonic oscillator with equation $\mathaccentV {ddot}07Fx = -\frac  {k}m x - \gamma \mathaccentV {dot}05Fx$}}{5}\protected@file@percent }
\newlabel{fig:2}{{2}{5}}
