\relax 
\providecommand\hyper@newdestlabel[2]{}
\providecommand\HyperFirstAtBeginDocument{\AtBeginDocument}
\HyperFirstAtBeginDocument{\ifx\hyper@anchor\@undefined
\global\let\oldcontentsline\contentsline
\gdef\contentsline#1#2#3#4{\oldcontentsline{#1}{#2}{#3}}
\global\let\oldnewlabel\newlabel
\gdef\newlabel#1#2{\newlabelxx{#1}#2}
\gdef\newlabelxx#1#2#3#4#5#6{\oldnewlabel{#1}{{#2}{#3}}}
\AtEndDocument{\ifx\hyper@anchor\@undefined
\let\contentsline\oldcontentsline
\let\newlabel\oldnewlabel
\fi}
\fi}
\global\let\hyper@last\relax 
\gdef\HyperFirstAtBeginDocument#1{#1}
\providecommand*\HyPL@Entry[1]{}
\abx@aux@refcontext{none/global//global/global}
\abx@aux@cite{iephegel}
\abx@aux@segm{0}{0}{iephegel}
\HyPL@Entry{0<</P()>>}
\@writefile{toc}{\boolfalse {citerequest}\boolfalse {citetracker}\boolfalse {pagetracker}\boolfalse {backtracker}\relax }
\@writefile{lof}{\boolfalse {citerequest}\boolfalse {citetracker}\boolfalse {pagetracker}\boolfalse {backtracker}\relax }
\@writefile{lot}{\boolfalse {citerequest}\boolfalse {citetracker}\boolfalse {pagetracker}\boolfalse {backtracker}\relax }
\abx@aux@cite{iephegel}
\abx@aux@segm{0}{0}{iephegel}
\abx@aux@backref{1}{iephegel}{0}{}{2}
\abx@aux@page{1}{2}
\abx@aux@backref{2}{iephegel}{0}{}{2}
\abx@aux@page{2}{2}
\abx@aux@cite{Singer}
\abx@aux@segm{0}{0}{Singer}
\abx@aux@cite{AnthropoligcalGaze}
\abx@aux@segm{0}{0}{AnthropoligcalGaze}
\abx@aux@backref{3}{Singer}{0}{}{3}
\abx@aux@page{3}{3}
\abx@aux@backref{4}{AnthropoligcalGaze}{0}{}{3}
\abx@aux@page{4}{3}
\abx@aux@refcontextdefaultsdone
\abx@aux@defaultrefcontext{0}{iephegel}{none/global//global/global}
\abx@aux@defaultrefcontext{0}{Singer}{none/global//global/global}
\abx@aux@defaultrefcontext{0}{AnthropoligcalGaze}{none/global//global/global}
\abx@aux@page{5}{4}
\abx@aux@page{6}{4}
\abx@aux@page{7}{4}
