\relax 
\@writefile{toc}{\contentsline {section}{\numberline {1}Introduction}{1}\protected@file@percent }
\newlabel{sec:introduction}{{1}{1}}
\@writefile{lof}{\contentsline {figure}{\numberline {1}{\ignorespaces Three terminal black box with a star circuit\relax }}{1}\protected@file@percent }
\providecommand*\caption@xref[2]{\@setref\relax\@undefined{#1}}
\newlabel{fig:blackbox}{{1}{1}}
\@writefile{toc}{\contentsline {section}{\numberline {2}Apparatus}{1}\protected@file@percent }
\newlabel{sec:apparatus}{{2}{1}}
\newlabel{fig:circuit_battery}{{2a}{2}}
\newlabel{sub@fig:circuit_battery}{{a}{2}}
\newlabel{table:battery_result}{{2b}{2}}
\newlabel{sub@table:battery_result}{{b}{2}}
\@writefile{lof}{\contentsline {figure}{\numberline {2}{\ignorespaces Test for potential difference across the terminals\relax }}{2}\protected@file@percent }
\@writefile{toc}{\contentsline {section}{\numberline {3}Procedure}{2}\protected@file@percent }
\newlabel{sec:procedure}{{3}{2}}
\@writefile{toc}{\contentsline {subsection}{\numberline {3.1}Battery}{2}\protected@file@percent }
\newlabel{sec:battery}{{3.1}{2}}
\@writefile{toc}{\contentsline {subsection}{\numberline {3.2}Diode}{2}\protected@file@percent }
\newlabel{sec:diode}{{3.2}{2}}
\newlabel{fig:circuit_diodedc}{{3a}{3}}
\newlabel{sub@fig:circuit_diodedc}{{a}{3}}
\newlabel{table:diodedc_result}{{3b}{3}}
\newlabel{sub@table:diodedc_result}{{b}{3}}
\@writefile{lof}{\contentsline {figure}{\numberline {3}{\ignorespaces (a) Circuit to test for diode, (b) Results for diode testing\relax }}{3}\protected@file@percent }
\@writefile{lof}{\contentsline {figure}{\numberline {4}{\ignorespaces Testing V-I characteristics across two nodes\relax }}{3}\protected@file@percent }
\newlabel{fig:vitesting}{{4}{3}}
\@writefile{toc}{\contentsline {subsection}{\numberline {3.3}Resistor}{3}\protected@file@percent }
\newlabel{sec:resistor}{{3.3}{3}}
\@writefile{toc}{\contentsline {section}{\numberline {4}Analysis}{3}\protected@file@percent }
\newlabel{sec:analysis}{{4}{3}}
\@writefile{toc}{\contentsline {subsection}{\numberline {4.1}Diode}{3}\protected@file@percent }
\newlabel{sec:analysis:diode}{{4.1}{3}}
\newlabel{fig:results_CtoA}{{5a}{4}}
\newlabel{sub@fig:results_CtoA}{{a}{4}}
\newlabel{fig:results_CtoB}{{5b}{4}}
\newlabel{sub@fig:results_CtoB}{{b}{4}}
\@writefile{lof}{\contentsline {figure}{\numberline {5}{\ignorespaces V-I characteristics of the diode\relax }}{4}\protected@file@percent }
\newlabel{fig:plots_diode}{{5}{4}}
\@writefile{toc}{\contentsline {subsection}{\numberline {4.2}Resistor}{4}\protected@file@percent }
\newlabel{fig:ctoa_above_breakdown}{{6a}{4}}
\newlabel{sub@fig:ctoa_above_breakdown}{{a}{4}}
\newlabel{fig:ctob_above_breakdown}{{6b}{4}}
\newlabel{sub@fig:ctob_above_breakdown}{{b}{4}}
\@writefile{lof}{\contentsline {figure}{\numberline {6}{\ignorespaces V-I characteristics above the breakdown voltage\relax }}{4}\protected@file@percent }
\newlabel{fig:vi_above_breakdown}{{6}{4}}
\@writefile{toc}{\contentsline {subsection}{\numberline {4.3}Testing with AC source}{5}\protected@file@percent }
\newlabel{analysis:ac_source}{{4.3}{5}}
\@writefile{lof}{\contentsline {figure}{\numberline {7}{\ignorespaces Circuit diagram for using the oscilloscope to measure waveform of current\relax }}{5}\protected@file@percent }
\newlabel{fig:circuit:diodeac}{{7}{5}}
\newlabel{fig:osc:atob}{{8a}{5}}
\newlabel{sub@fig:osc:atob}{{a}{5}}
\newlabel{fig:osc:ctob}{{8b}{5}}
\newlabel{sub@fig:osc:ctob}{{b}{5}}
\@writefile{lof}{\contentsline {figure}{\numberline {8}{\ignorespaces Waveforms of $I(t)$ for various terminals in the black box\relax }}{5}\protected@file@percent }
\newlabel{fig:osc:waveforms}{{8}{5}}
\@writefile{lof}{\contentsline {figure}{\numberline {9}{\ignorespaces Internal circuit of the black box\relax }}{5}\protected@file@percent }
\newlabel{fig:final_blackbox}{{9}{5}}
