\relax 
\bbl@beforestart
\babel@aux{english}{}
\@writefile{toc}{\contentsline {section}{\numberline {1}Affine Transformations}{1}\protected@file@percent }
\providecommand*\caption@xref[2]{\@setref\relax\@undefined{#1}}
\newlabel{fig:1ai}{{1a}{1}}
\newlabel{sub@fig:1ai}{{a}{1}}
\newlabel{fig:1aii}{{1b}{1}}
\newlabel{sub@fig:1aii}{{b}{1}}
\newlabel{fig:1aiii}{{1c}{1}}
\newlabel{sub@fig:1aiii}{{c}{1}}
\@writefile{lof}{\contentsline {figure}{\numberline {1}{\ignorespaces World lines of objects at rest and at constant velocity\relax }}{1}\protected@file@percent }
\newlabel{fig:1ci}{{2a}{2}}
\newlabel{sub@fig:1ci}{{a}{2}}
\newlabel{fig:1cii}{{2b}{2}}
\newlabel{sub@fig:1cii}{{b}{2}}
\newlabel{fig:1civ}{{2c}{2}}
\newlabel{sub@fig:1civ}{{c}{2}}
\newlabel{fig:1cv}{{2d}{2}}
\newlabel{sub@fig:1cv}{{d}{2}}
\@writefile{lof}{\contentsline {figure}{\numberline {2}{\ignorespaces World lines of two frames of reference, and an accelerating frame (c)\relax }}{2}\protected@file@percent }
\newlabel{fig:1c}{{2}{2}}
\@writefile{toc}{\contentsline {section}{\numberline {2}Bases in $\mathbb  {R}^2$}{3}\protected@file@percent }
