\relax 
\providecommand\hyper@newdestlabel[2]{}
\abx@aux@refcontext{none/global//global/global}
\providecommand\HyperFirstAtBeginDocument{\AtBeginDocument}
\HyperFirstAtBeginDocument{\ifx\hyper@anchor\@undefined
\global\let\oldcontentsline\contentsline
\gdef\contentsline#1#2#3#4{\oldcontentsline{#1}{#2}{#3}}
\global\let\oldnewlabel\newlabel
\gdef\newlabel#1#2{\newlabelxx{#1}#2}
\gdef\newlabelxx#1#2#3#4#5#6{\oldnewlabel{#1}{{#2}{#3}}}
\AtEndDocument{\ifx\hyper@anchor\@undefined
\let\contentsline\oldcontentsline
\let\newlabel\oldnewlabel
\fi}
\fi}
\global\let\hyper@last\relax 
\gdef\HyperFirstAtBeginDocument#1{#1}
\providecommand*\HyPL@Entry[1]{}
\abx@aux@cite{chatterjee1986nationalist}
\abx@aux@segm{0}{0}{chatterjee1986nationalist}
\HyPL@Entry{0<</S/D>>}
\@writefile{toc}{\boolfalse {citerequest}\boolfalse {citetracker}\boolfalse {pagetracker}\boolfalse {backtracker}\relax }
\@writefile{lof}{\boolfalse {citerequest}\boolfalse {citetracker}\boolfalse {pagetracker}\boolfalse {backtracker}\relax }
\@writefile{lot}{\boolfalse {citerequest}\boolfalse {citetracker}\boolfalse {pagetracker}\boolfalse {backtracker}\relax }
\@writefile{toc}{\defcounter {refsection}{0}\relax }\@writefile{toc}{\contentsline {section}{\numberline {1}Introduction}{1}{section.1}\protected@file@percent }
\@writefile{toc}{\defcounter {refsection}{0}\relax }\@writefile{toc}{\contentsline {section}{\numberline {2}The Problematic and Thematic}{1}{section.2}\protected@file@percent }
\abx@aux@cite{chatterjee1986nationalist}
\abx@aux@segm{0}{0}{chatterjee1986nationalist}
\@writefile{toc}{\defcounter {refsection}{0}\relax }\@writefile{toc}{\contentsline {section}{\numberline {3}The Nation and The World: Gandhi and Nehru}{2}{section.3}\protected@file@percent }
\@writefile{toc}{\defcounter {refsection}{0}\relax }\@writefile{toc}{\contentsline {subsection}{\numberline {3.1}Gandhi}{2}{subsection.3.1}\protected@file@percent }
\abx@aux@cite{chatterjee1986nationalist}
\abx@aux@segm{0}{0}{chatterjee1986nationalist}
\abx@aux@cite{chatterjee1986nationalist}
\abx@aux@segm{0}{0}{chatterjee1986nationalist}
\abx@aux@cite{chatterjee1986nationalist}
\abx@aux@segm{0}{0}{chatterjee1986nationalist}
\@writefile{toc}{\defcounter {refsection}{0}\relax }\@writefile{toc}{\contentsline {subsection}{\numberline {3.2}Nehru}{3}{subsection.3.2}\protected@file@percent }
\abx@aux@cite{chatterjee1986nationalist}
\abx@aux@segm{0}{0}{chatterjee1986nationalist}
\@writefile{toc}{\defcounter {refsection}{0}\relax }\@writefile{toc}{\contentsline {subsubsection}{\numberline {3.2.1}Gandhi as a figure to Mobilize the Peasantry}{4}{subsubsection.3.2.1}\protected@file@percent }
\@writefile{toc}{\defcounter {refsection}{0}\relax }\@writefile{toc}{\contentsline {subsubsection}{\numberline {3.2.2}The National Planning Committee}{4}{subsubsection.3.2.2}\protected@file@percent }
\@writefile{toc}{\defcounter {refsection}{0}\relax }\@writefile{toc}{\contentsline {section}{\numberline {4}Religion Inside The Nation: Iqbal and Jinnah}{4}{section.4}\protected@file@percent }
\abx@aux@cite{zaidi1978evolution}
\abx@aux@segm{0}{0}{zaidi1978evolution}
\@writefile{toc}{\defcounter {refsection}{0}\relax }\@writefile{toc}{\contentsline {section}{\numberline {5}Conclusion}{5}{section.5}\protected@file@percent }
\abx@aux@refcontextdefaultsdone
\abx@aux@defaultrefcontext{0}{chatterjee1986nationalist}{none/global//global/global}
\abx@aux@defaultrefcontext{0}{zaidi1978evolution}{none/global//global/global}
