 ,Area,Mean,Min,Max,Angle,Length
1,3.040,157.222,74.969,201.541,1.044,100.000
2,2.221,165.611,139.422,254.795,2.933,73.054
3,5.485,159.090,127.330,254.798,3.407,180.479
4,2.222,165.470,138.502,255.000,2.933,73.069
