\relax 
\@writefile{toc}{\contentsline {section}{\numberline {1}Introduction}{1}\protected@file@percent }
\@writefile{toc}{\contentsline {subsection}{\numberline {1.1}Apparatus}{1}\protected@file@percent }
\@writefile{lof}{\contentsline {figure}{\numberline {1}{\ignorespaces Retort stand with protractor at pivot to measure angle of release\relax }}{2}\protected@file@percent }
\providecommand*\caption@xref[2]{\@setref\relax\@undefined{#1}}
\newlabel{fig:retort1}{{1}{2}}
\@writefile{toc}{\contentsline {section}{\numberline {2}Procedure}{2}\protected@file@percent }
\@writefile{toc}{\contentsline {subsection}{\numberline {2.1}Part A: Varying the mass}{2}\protected@file@percent }
\@writefile{lot}{\contentsline {table}{\numberline {1}{\ignorespaces Mass of bob $M_i$ vs. time period of pendulum\relax }}{2}\protected@file@percent }
\newlabel{table:1}{{1}{2}}
\@writefile{lof}{\contentsline {figure}{\numberline {2}{\ignorespaces Time period as a function of the mass of the bob\relax }}{2}\protected@file@percent }
\@writefile{toc}{\contentsline {subsection}{\numberline {2.2}Part B: Varying the length}{3}\protected@file@percent }
\@writefile{lot}{\contentsline {table}{\numberline {2}{\ignorespaces The length of the string $l$ vs. time period\relax }}{3}\protected@file@percent }
\newlabel{table:2}{{2}{3}}
\newlabel{figure:2}{{\caption@xref {figure:2}{ on input line 133}}{3}}
\@writefile{lof}{\contentsline {figure}{\numberline {3}{\ignorespaces Time period versus length of pendulum\relax }}{3}\protected@file@percent }
\@writefile{toc}{\contentsline {subsection}{\numberline {2.3}Part C: Varying the angle}{3}\protected@file@percent }
\@writefile{lot}{\contentsline {table}{\numberline {3}{\ignorespaces Angle of release vs. time period\relax }}{4}\protected@file@percent }
\newlabel{table:3}{{3}{4}}
\@writefile{lof}{\contentsline {figure}{\numberline {4}{\ignorespaces Time period as a function of angle of release\relax }}{4}\protected@file@percent }
\@writefile{toc}{\contentsline {section}{\numberline {3}Discussion}{4}\protected@file@percent }
