\relax 
\providecommand\hyper@newdestlabel[2]{}
\providecommand\HyperFirstAtBeginDocument{\AtBeginDocument}
\HyperFirstAtBeginDocument{\ifx\hyper@anchor\@undefined
\global\let\oldcontentsline\contentsline
\gdef\contentsline#1#2#3#4{\oldcontentsline{#1}{#2}{#3}}
\global\let\oldnewlabel\newlabel
\gdef\newlabel#1#2{\newlabelxx{#1}#2}
\gdef\newlabelxx#1#2#3#4#5#6{\oldnewlabel{#1}{{#2}{#3}}}
\AtEndDocument{\ifx\hyper@anchor\@undefined
\let\contentsline\oldcontentsline
\let\newlabel\oldnewlabel
\fi}
\fi}
\global\let\hyper@last\relax 
\gdef\HyperFirstAtBeginDocument#1{#1}
\providecommand*\HyPL@Entry[1]{}
\abx@aux@refcontext{none/global//global/global}
\abx@aux@cite{HindSwaraj}
\abx@aux@segm{0}{0}{HindSwaraj}
\abx@aux@segm{0}{0}{HindSwaraj}
\abx@aux@segm{0}{0}{HindSwaraj}
\HyPL@Entry{0<</S/D>>}
\@writefile{toc}{\boolfalse {citerequest}\boolfalse {citetracker}\boolfalse {pagetracker}\boolfalse {backtracker}\relax }
\@writefile{lof}{\boolfalse {citerequest}\boolfalse {citetracker}\boolfalse {pagetracker}\boolfalse {backtracker}\relax }
\@writefile{lot}{\boolfalse {citerequest}\boolfalse {citetracker}\boolfalse {pagetracker}\boolfalse {backtracker}\relax }
\@writefile{toc}{\defcounter {refsection}{0}\relax }\@writefile{toc}{\contentsline {section}{\numberline {1}Railways}{1}{section.1}\protected@file@percent }
\abx@aux@cite{CDCPlague}
\abx@aux@segm{0}{0}{CDCPlague}
\abx@aux@cite{Americapox}
\abx@aux@segm{0}{0}{Americapox}
\abx@aux@cite{Mishra}
\abx@aux@segm{0}{0}{Mishra}
\abx@aux@segm{0}{0}{HindSwaraj}
\abx@aux@segm{0}{0}{HindSwaraj}
\@writefile{toc}{\defcounter {refsection}{0}\relax }\@writefile{toc}{\contentsline {section}{\numberline {2}The Judicial and Legislative System: Lawyers and the Parliament}{3}{section.2}\protected@file@percent }
\@writefile{toc}{\defcounter {refsection}{0}\relax }\@writefile{toc}{\contentsline {section}{\numberline {3}Modern Medicine: Doctors}{3}{section.3}\protected@file@percent }
\abx@aux@cite{PTHealthcare}
\abx@aux@segm{0}{0}{PTHealthcare}
\abx@aux@cite{Stanford}
\abx@aux@segm{0}{0}{Stanford}
\abx@aux@cite{PTAlienation}
\abx@aux@segm{0}{0}{PTAlienation}
\abx@aux@segm{0}{0}{HindSwaraj}
\@writefile{toc}{\defcounter {refsection}{0}\relax }\@writefile{toc}{\contentsline {section}{\numberline {4}Education and Machinery/Automation}{4}{section.4}\protected@file@percent }
\@writefile{toc}{\defcounter {refsection}{0}\relax }\@writefile{toc}{\contentsline {section}{\numberline {5}Conclusion}{5}{section.5}\protected@file@percent }
\abx@aux@refcontextdefaultsdone
\abx@aux@defaultrefcontext{0}{HindSwaraj}{none/global//global/global}
\abx@aux@defaultrefcontext{0}{CDCPlague}{none/global//global/global}
\abx@aux@defaultrefcontext{0}{Americapox}{none/global//global/global}
\abx@aux@defaultrefcontext{0}{Mishra}{none/global//global/global}
\abx@aux@defaultrefcontext{0}{PTHealthcare}{none/global//global/global}
\abx@aux@defaultrefcontext{0}{Stanford}{none/global//global/global}
\abx@aux@defaultrefcontext{0}{PTAlienation}{none/global//global/global}
