% $ biblatex auxiliary file $
% $ biblatex bbl format version 3.1 $
% Do not modify the above lines!
%
% This is an auxiliary file used by the 'biblatex' package.
% This file may safely be deleted. It will be recreated by
% biber as required.
%
\begingroup
\makeatletter
\@ifundefined{ver@biblatex.sty}
  {\@latex@error
     {Missing 'biblatex' package}
     {The bibliography requires the 'biblatex' package.}
      \aftergroup\endinput}
  {}
\endgroup


\refsection{0}
  \datalist[entry]{none/global//global/global}
    \entry{murdock1990heroine}{book}{}
      \name{author}{1}{}{%
        {{un=0,uniquepart=base,hash=ee9a73674d7c14888b124244af380d9a}{%
           family={Murdock},
           familyi={M\bibinitperiod},
           given={M.},
           giveni={M\bibinitperiod},
           givenun=0}}%
      }
      \list{publisher}{1}{%
        {Shambhala}%
      }
      \strng{namehash}{ee9a73674d7c14888b124244af380d9a}
      \strng{fullhash}{ee9a73674d7c14888b124244af380d9a}
      \strng{bibnamehash}{ee9a73674d7c14888b124244af380d9a}
      \strng{authorbibnamehash}{ee9a73674d7c14888b124244af380d9a}
      \strng{authornamehash}{ee9a73674d7c14888b124244af380d9a}
      \strng{authorfullhash}{ee9a73674d7c14888b124244af380d9a}
      \field{sortinit}{1}
      \field{sortinithash}{50c6687d7fc80f50136d75228e3c59ba}
      \true{singletitle}
      \field{labelnamesource}{author}
      \field{labeltitlesource}{title}
      \field{isbn}{9780834828346}
      \field{title}{The Heroine's Journey: Woman's Quest for Wholeness}
      \field{year}{1990}
      \verb{urlraw}
      \verb https://books.google.co.in/books?id=cacL-s6C7-IC
      \endverb
      \verb{url}
      \verb https://books.google.co.in/books?id=cacL-s6C7-IC
      \endverb
    \endentry
  \enddatalist
\endrefsection
\endinput

