\relax 
\providecommand\hyper@newdestlabel[2]{}
\abx@aux@refcontext{none/global//global/global}
\providecommand\HyperFirstAtBeginDocument{\AtBeginDocument}
\HyperFirstAtBeginDocument{\ifx\hyper@anchor\@undefined
\global\let\oldcontentsline\contentsline
\gdef\contentsline#1#2#3#4{\oldcontentsline{#1}{#2}{#3}}
\global\let\oldnewlabel\newlabel
\gdef\newlabel#1#2{\newlabelxx{#1}#2}
\gdef\newlabelxx#1#2#3#4#5#6{\oldnewlabel{#1}{{#2}{#3}}}
\AtEndDocument{\ifx\hyper@anchor\@undefined
\let\contentsline\oldcontentsline
\let\newlabel\oldnewlabel
\fi}
\fi}
\global\let\hyper@last\relax 
\gdef\HyperFirstAtBeginDocument#1{#1}
\providecommand*\HyPL@Entry[1]{}
\abx@aux@cite{kumar1999indianart}
\abx@aux@segm{0}{0}{kumar1999indianart}
\abx@aux@cite{atteqa2004tagore}
\abx@aux@segm{0}{0}{atteqa2004tagore}
\abx@aux@cite{Singer}
\abx@aux@segm{0}{0}{Singer}
\HyPL@Entry{0<</S/D>>}
\@writefile{toc}{\boolfalse {citerequest}\boolfalse {citetracker}\boolfalse {pagetracker}\boolfalse {backtracker}\relax }
\@writefile{lof}{\boolfalse {citerequest}\boolfalse {citetracker}\boolfalse {pagetracker}\boolfalse {backtracker}\relax }
\@writefile{lot}{\boolfalse {citerequest}\boolfalse {citetracker}\boolfalse {pagetracker}\boolfalse {backtracker}\relax }
\abx@aux@cite{iqbal1975shergil}
\abx@aux@segm{0}{0}{iqbal1975shergil}
\abx@aux@cite{kumar1999indianart}
\abx@aux@segm{0}{0}{kumar1999indianart}
\@writefile{toc}{\defcounter {refsection}{0}\relax }\@writefile{toc}{\contentsline {section}{\numberline {1}Redefining Tradition: Pre 1940 Artists}{2}{section.1}\protected@file@percent }
\abx@aux@cite{tillotson1997shergil}
\abx@aux@segm{0}{0}{tillotson1997shergil}
\abx@aux@cite{kumar1999indianart}
\abx@aux@segm{0}{0}{kumar1999indianart}
\abx@aux@cite{mukherjee2014nationalism}
\abx@aux@segm{0}{0}{mukherjee2014nationalism}
\abx@aux@cite{kumar1999indianart}
\abx@aux@segm{0}{0}{kumar1999indianart}
\@writefile{toc}{\defcounter {refsection}{0}\relax }\@writefile{toc}{\contentsline {section}{\numberline {2}Progressive Modern Art: Post 1940 Art}{4}{section.2}\protected@file@percent }
\abx@aux@cite{kumar1999indianart}
\abx@aux@segm{0}{0}{kumar1999indianart}
\abx@aux@cite{kumar1999indianart}
\abx@aux@segm{0}{0}{kumar1999indianart}
\abx@aux@cite{kumar1999indianart}
\abx@aux@segm{0}{0}{kumar1999indianart}
\@writefile{toc}{\defcounter {refsection}{0}\relax }\@writefile{toc}{\contentsline {section}{\numberline {3}Conclusion}{6}{section.3}\protected@file@percent }
\abx@aux@refcontextdefaultsdone
\abx@aux@defaultrefcontext{0}{kumar1999indianart}{none/global//global/global}
\abx@aux@defaultrefcontext{0}{atteqa2004tagore}{none/global//global/global}
\abx@aux@defaultrefcontext{0}{Singer}{none/global//global/global}
\abx@aux@defaultrefcontext{0}{iqbal1975shergil}{none/global//global/global}
\abx@aux@defaultrefcontext{0}{tillotson1997shergil}{none/global//global/global}
\abx@aux@defaultrefcontext{0}{mukherjee2014nationalism}{none/global//global/global}
