[0] Config.pm:304> INFO - This is Biber 2.13
[0] Config.pm:307> INFO - Logfile is 'main.blg'
[40] biber:315> INFO - === Thu Dec  5, 2019, 20:54:58
[59] Biber.pm:375> INFO - Reading 'main.bcf'
[167] Biber.pm:905> INFO - Found 10 citekeys in bib section 0
[185] Biber.pm:4196> INFO - Processing section 0
[186] Utils.pm:75> INFO - Globbing data source 'NTGaze.bib'
[186] Utils.pm:91> INFO - Globbed data source 'NTGaze.bib' to NTGaze.bib
[199] Biber.pm:4373> INFO - Looking for bibtex format file 'NTGaze.bib' for section 0
[201] bibtex.pm:1462> INFO - LaTeX decoding ...
[223] bibtex.pm:1281> INFO - Found BibTeX data source 'NTGaze.bib'
[271] Utils.pm:300> WARN - month field 'Jun' in entry 'Misselbrook2013' is not an integer - this will probably not sort properly.
[320] UCollate.pm:68> INFO - Overriding locale 'en-US' defaults 'variable = shifted' with 'variable = non-ignorable'
[321] UCollate.pm:68> INFO - Overriding locale 'en-US' defaults 'normalization = NFD' with 'normalization = prenormalized'
[321] Biber.pm:4024> INFO - Sorting list 'none/global//global/global' of type 'entry' with template 'none' and locale 'en-US'
[321] Biber.pm:4030> INFO - No sort tailoring available for locale 'en-US'
[336] bbl.pm:648> INFO - Writing 'main.bbl' with encoding 'UTF-8'
[342] bbl.pm:751> INFO - Output to main.bbl
[343] Biber.pm:110> INFO - WARNINGS: 1
