\relax 
\providecommand\hyper@newdestlabel[2]{}
\abx@aux@refcontext{none/global//global/global}
\providecommand\HyperFirstAtBeginDocument{\AtBeginDocument}
\HyperFirstAtBeginDocument{\ifx\hyper@anchor\@undefined
\global\let\oldcontentsline\contentsline
\gdef\contentsline#1#2#3#4{\oldcontentsline{#1}{#2}{#3}}
\global\let\oldnewlabel\newlabel
\gdef\newlabel#1#2{\newlabelxx{#1}#2}
\gdef\newlabelxx#1#2#3#4#5#6{\oldnewlabel{#1}{{#2}{#3}}}
\AtEndDocument{\ifx\hyper@anchor\@undefined
\let\contentsline\oldcontentsline
\let\newlabel\oldnewlabel
\fi}
\fi}
\global\let\hyper@last\relax 
\gdef\HyperFirstAtBeginDocument#1{#1}
\providecommand*\HyPL@Entry[1]{}
\HyPL@Entry{0<</S/D>>}
\@writefile{toc}{\boolfalse {citerequest}\boolfalse {citetracker}\boolfalse {pagetracker}\boolfalse {backtracker}\relax }
\@writefile{lof}{\boolfalse {citerequest}\boolfalse {citetracker}\boolfalse {pagetracker}\boolfalse {backtracker}\relax }
\@writefile{lot}{\boolfalse {citerequest}\boolfalse {citetracker}\boolfalse {pagetracker}\boolfalse {backtracker}\relax }
\HyPL@Entry{1<</S/D>>}
\abx@aux@cite{may2018asdfrominside}
\abx@aux@segm{0}{0}{may2018asdfrominside}
\abx@aux@cite{judysingerthesis}
\abx@aux@segm{0}{0}{judysingerthesis}
\abx@aux@cite{judysingernd2}
\abx@aux@segm{0}{0}{judysingernd2}
\abx@aux@cite{judysingernd2}
\abx@aux@segm{0}{0}{judysingernd2}
\@writefile{toc}{\defcounter {refsection}{0}\relax }\@writefile{toc}{\contentsline {section}{\numberline {1}Introduction}{2}{section.1}\protected@file@percent }
\@writefile{toc}{\defcounter {refsection}{0}\relax }\@writefile{toc}{\contentsline {section}{\numberline {2}Background}{2}{section.2}\protected@file@percent }
\@writefile{toc}{\defcounter {refsection}{0}\relax }\@writefile{toc}{\contentsline {subsection}{\numberline {2.1}Neurodiversity}{2}{subsection.2.1}\protected@file@percent }
\abx@aux@cite{davis2013disability}
\abx@aux@segm{0}{0}{davis2013disability}
\abx@aux@cite{Misselbrook2013}
\abx@aux@segm{0}{0}{Misselbrook2013}
\abx@aux@cite{davis2013disability}
\abx@aux@segm{0}{0}{davis2013disability}
\@writefile{toc}{\defcounter {refsection}{0}\relax }\@writefile{toc}{\contentsline {subsubsection}{\numberline {2.1.1}Models of disability}{3}{subsubsection.2.1.1}\protected@file@percent }
\@writefile{toc}{\defcounter {refsection}{0}\relax }\@writefile{toc}{\contentsline {subsection}{\numberline {2.2}Autism}{3}{subsection.2.2}\protected@file@percent }
\@writefile{toc}{\defcounter {refsection}{0}\relax }\@writefile{toc}{\contentsline {subsubsection}{\numberline {2.2.1}Looking at Autism Through Neurodiversity}{4}{subsubsection.2.2.1}\protected@file@percent }
\abx@aux@cite{douwe2009asd}
\abx@aux@segm{0}{0}{douwe2009asd}
\abx@aux@cite{davis2013disability}
\abx@aux@segm{0}{0}{davis2013disability}
\abx@aux@cite{douwe2009asd}
\abx@aux@segm{0}{0}{douwe2009asd}
\abx@aux@cite{douwe2009asd}
\abx@aux@segm{0}{0}{douwe2009asd}
\abx@aux@cite{douwe2009asd}
\abx@aux@segm{0}{0}{douwe2009asd}
\abx@aux@cite{douwe2009asd}
\abx@aux@segm{0}{0}{douwe2009asd}
\@writefile{toc}{\defcounter {refsection}{0}\relax }\@writefile{toc}{\contentsline {section}{\numberline {3}The Neurotypical Gaze}{5}{section.3}\protected@file@percent }
\@writefile{toc}{\defcounter {refsection}{0}\relax }\@writefile{toc}{\contentsline {subsection}{\numberline {3.1}Medical conceptions of Autism}{5}{subsection.3.1}\protected@file@percent }
\abx@aux@cite{american2013diagnostic}
\abx@aux@segm{0}{0}{american2013diagnostic}
\abx@aux@cite{may2018asdfrominside}
\abx@aux@segm{0}{0}{may2018asdfrominside}
\abx@aux@cite{may2018asdfrominside}
\abx@aux@segm{0}{0}{may2018asdfrominside}
\abx@aux@cite{davis2013disability}
\abx@aux@segm{0}{0}{davis2013disability}
\abx@aux@cite{davis2013disability}
\abx@aux@segm{0}{0}{davis2013disability}
\abx@aux@cite{douwe2009asd}
\abx@aux@segm{0}{0}{douwe2009asd}
\abx@aux@cite{hoffmann2018fiction}
\abx@aux@segm{0}{0}{hoffmann2018fiction}
\abx@aux@cite{hoffmann2018fiction}
\abx@aux@segm{0}{0}{hoffmann2018fiction}
\@writefile{toc}{\defcounter {refsection}{0}\relax }\@writefile{toc}{\contentsline {subsection}{\numberline {3.2}Social and Cultural conception of Autism}{7}{subsection.3.2}\protected@file@percent }
\abx@aux@cite{recogiep}
\abx@aux@segm{0}{0}{recogiep}
\abx@aux@cite{recogiep}
\abx@aux@segm{0}{0}{recogiep}
\abx@aux@cite{grossman2019asd}
\abx@aux@segm{0}{0}{grossman2019asd}
\@writefile{toc}{\defcounter {refsection}{0}\relax }\@writefile{toc}{\contentsline {section}{\numberline {4}Recognition}{8}{section.4}\protected@file@percent }
\abx@aux@cite{hoffmann2018fiction}
\abx@aux@segm{0}{0}{hoffmann2018fiction}
\abx@aux@cite{davis2013disability}
\abx@aux@segm{0}{0}{davis2013disability}
\@writefile{toc}{\defcounter {refsection}{0}\relax }\@writefile{toc}{\contentsline {section}{\numberline {5}Conclusion}{9}{section.5}\protected@file@percent }
\abx@aux@refcontextdefaultsdone
\abx@aux@defaultrefcontext{0}{may2018asdfrominside}{none/global//global/global}
\abx@aux@defaultrefcontext{0}{judysingerthesis}{none/global//global/global}
\abx@aux@defaultrefcontext{0}{judysingernd2}{none/global//global/global}
\abx@aux@defaultrefcontext{0}{davis2013disability}{none/global//global/global}
\abx@aux@defaultrefcontext{0}{Misselbrook2013}{none/global//global/global}
\abx@aux@defaultrefcontext{0}{douwe2009asd}{none/global//global/global}
\abx@aux@defaultrefcontext{0}{american2013diagnostic}{none/global//global/global}
\abx@aux@defaultrefcontext{0}{hoffmann2018fiction}{none/global//global/global}
\abx@aux@defaultrefcontext{0}{recogiep}{none/global//global/global}
\abx@aux@defaultrefcontext{0}{grossman2019asd}{none/global//global/global}
