\relax 
\@writefile{toc}{\contentsline {section}{\numberline {1}Linear Transformations}{1}\protected@file@percent }
\@writefile{toc}{\contentsline {section}{\numberline {2}The Metric and the Determinant}{3}\protected@file@percent }
\providecommand*\caption@xref[2]{\@setref\relax\@undefined{#1}}
\newlabel{fig:transformation}{{\caption@xref {fig:transformation}{ on input line 239}}{4}}
\@writefile{lof}{\contentsline {figure}{\numberline {1}{\ignorespaces (a) Shows the plane before transformation and (b) shows the plane after $S_1$ acts on each point. The highlighted square is the unit square spanned by the basis vectors $\mathaccentV {hat}75Ee_1$ and $\mathaccentV {hat}75Ee_2$\relax }}{4}\protected@file@percent }
\@writefile{toc}{\contentsline {section}{\numberline {3}Programming}{5}\protected@file@percent }
\@writefile{lol}{\contentsline {lstlisting}{code.py}{5}\protected@file@percent }
