[0] Config.pm:304> INFO - This is Biber 2.13
[0] Config.pm:307> INFO - Logfile is 'spcifinal.blg'
[37] biber:315> INFO - === Fri Dec 20, 2019, 09:09:39
[57] Biber.pm:375> INFO - Reading 'spcifinal.bcf'
[158] Biber.pm:905> INFO - Found 5 citekeys in bib section 0
[177] Biber.pm:4196> INFO - Processing section 0
[177] Utils.pm:75> INFO - Globbing data source 'spcifinal.bib'
[177] Utils.pm:91> INFO - Globbed data source 'spcifinal.bib' to spcifinal.bib
[193] Biber.pm:4373> INFO - Looking for bibtex format file 'spcifinal.bib' for section 0
[194] bibtex.pm:1462> INFO - LaTeX decoding ...
[209] bibtex.pm:1281> INFO - Found BibTeX data source 'spcifinal.bib'
[249] UCollate.pm:68> INFO - Overriding locale 'en-US' defaults 'normalization = NFD' with 'normalization = prenormalized'
[249] UCollate.pm:68> INFO - Overriding locale 'en-US' defaults 'variable = shifted' with 'variable = non-ignorable'
[249] Biber.pm:4024> INFO - Sorting list 'none/global//global/global' of type 'entry' with template 'none' and locale 'en-US'
[249] Biber.pm:4030> INFO - No sort tailoring available for locale 'en-US'
[259] bbl.pm:648> INFO - Writing 'spcifinal.bbl' with encoding 'UTF-8'
[262] bbl.pm:751> INFO - Output to spcifinal.bbl
