\relax 
\abx@aux@refcontext{none/global//global/global}
\@writefile{toc}{\boolfalse {citerequest}\boolfalse {citetracker}\boolfalse {pagetracker}\boolfalse {backtracker}\relax }
\@writefile{lof}{\boolfalse {citerequest}\boolfalse {citetracker}\boolfalse {pagetracker}\boolfalse {backtracker}\relax }
\@writefile{lot}{\boolfalse {citerequest}\boolfalse {citetracker}\boolfalse {pagetracker}\boolfalse {backtracker}\relax }
\abx@aux@cite{Singer}
\abx@aux@segm{0}{0}{Singer}
\abx@aux@cite{RSSIndiaWorldLeader}
\abx@aux@segm{0}{0}{RSSIndiaWorldLeader}
\abx@aux@cite{CensusData}
\abx@aux@segm{0}{0}{CensusData}
\abx@aux@cite{RSSHinduRashtra}
\abx@aux@segm{0}{0}{RSSHinduRashtra}
\abx@aux@cite{PTTransphobia}
\abx@aux@segm{0}{0}{PTTransphobia}
\abx@aux@cite{BoseJalal}
\abx@aux@segm{0}{0}{BoseJalal}
\abx@aux@refcontextdefaultsdone
\abx@aux@defaultrefcontext{0}{Singer}{none/global//global/global}
\abx@aux@defaultrefcontext{0}{RSSIndiaWorldLeader}{none/global//global/global}
\abx@aux@defaultrefcontext{0}{CensusData}{none/global//global/global}
\abx@aux@defaultrefcontext{0}{RSSHinduRashtra}{none/global//global/global}
\abx@aux@defaultrefcontext{0}{PTTransphobia}{none/global//global/global}
\abx@aux@defaultrefcontext{0}{BoseJalal}{none/global//global/global}
